,class_weight,C,n_clusters,error,std
0,,0.001,1,0.0,0.0
1,,0.001,2,0.12183347532524466,0.018524819544423986
2,,0.001,4,0.21959152839525972,0.04445774360103895
3,,0.001,8,0.35205166984119296,0.04214369494894045
4,,0.001,16,0.4641495809765064,0.029136674404767717
5,,0.001,32,0.5077617640298373,0.00797590565736345
6,,0.001,63,0.5201023651387254,0.011210563475005045
7,,0.001,126,0.5307492641923237,0.013749957140440396
8,,0.001,251,0.5412986817026784,0.010816598468522847
9,,0.001,500,0.5486912379431438,0.012676163533399114
10,balanced,0.001,1,0.04147307778038138,0.016246464452919978
11,balanced,0.001,2,0.4015409676959667,0.011302883539796745
12,balanced,0.001,4,0.4134225504352715,0.013976770969546215
13,balanced,0.001,8,0.45258179955323685,0.028046605044691777
14,balanced,0.001,16,0.48429569425218694,0.013979546196767893
15,balanced,0.001,32,0.5287100347218118,0.0115517959563843
16,balanced,0.001,63,0.539722420710888,0.013237175567392977
17,balanced,0.001,126,0.54932707049342,0.012347008450595642
18,balanced,0.001,251,0.5537715786189151,0.013083971784006231
19,balanced,0.001,500,0.5580121337040664,0.011026078643293413
20,,0.003593813663804626,1,0.0,0.0
21,,0.003593813663804626,2,0.23949113693895846,0.013048811645512704
22,,0.003593813663804626,4,0.33459017555638254,0.03945021781987137
23,,0.003593813663804626,8,0.4187141438842418,0.025314480486198773
24,,0.003593813663804626,16,0.4706935926152447,0.02572977481081106
25,,0.003593813663804626,32,0.5324078544726201,0.01034910850029838
26,,0.003593813663804626,63,0.5405674385701152,0.013983145393772812
27,,0.003593813663804626,126,0.5445950473420654,0.015347272468456647
28,,0.003593813663804626,251,0.5540458975708911,0.008800103879640073
29,,0.003593813663804626,500,0.556319803201994,0.007918618705205448
30,balanced,0.003593813663804626,1,0.0414669277503257,0.016149821453642625
31,balanced,0.003593813663804626,2,0.4024691567110909,0.01107843144321794
32,balanced,0.003593813663804626,4,0.44315557706297665,0.007801847426678949
33,balanced,0.003593813663804626,8,0.471713434837895,0.020805127793907644
34,balanced,0.003593813663804626,16,0.504241037917194,0.021005527643871372
35,balanced,0.003593813663804626,32,0.5420833209907977,0.011332793868887388
36,balanced,0.003593813663804626,63,0.5516709419538849,0.011815979722329133
37,balanced,0.003593813663804626,126,0.5554449270278721,0.014335886828183968
38,balanced,0.003593813663804626,251,0.55991212805717,0.011508285683586793
39,balanced,0.003593813663804626,500,0.5615533328565959,0.00885516719686882
40,,0.01291549665014884,1,0.0,0.0
41,,0.01291549665014884,2,0.26835203897888843,0.009681061870795761
42,,0.01291549665014884,4,0.332328764669412,0.03843764110279194
43,,0.01291549665014884,8,0.42849360465499764,0.015965961135464
44,,0.01291549665014884,16,0.4940296234183245,0.0306158341471101
45,,0.01291549665014884,32,0.5408210428917877,0.014105285562848707
46,,0.01291549665014884,63,0.5483858874317962,0.0094349072849872
47,,0.01291549665014884,126,0.5511166228464165,0.012306822976987954
48,,0.01291549665014884,251,0.5581066492463264,0.008178302963189785
49,,0.01291549665014884,500,0.5595853624084369,0.003126322823303635
50,balanced,0.01291549665014884,1,0.0414669277503257,0.016149821453642625
51,balanced,0.01291549665014884,2,0.4029872363414859,0.010812907360455
52,balanced,0.01291549665014884,4,0.44047521550887936,0.01938547023526151
53,balanced,0.01291549665014884,8,0.4677253653371416,0.007908353356480328
54,balanced,0.01291549665014884,16,0.5027963708017371,0.008191448780415
55,balanced,0.01291549665014884,32,0.5346556894777671,0.022285428463516718
56,balanced,0.01291549665014884,63,0.5562550894524072,0.01117858156770703
57,balanced,0.01291549665014884,126,0.5577817043477504,0.012360720447134278
58,balanced,0.01291549665014884,251,0.5603494191942545,0.008239582624094176
59,balanced,0.01291549665014884,500,0.5637514692895798,0.009867610180152874
60,,0.046415888336127795,1,0.0,0.0
61,,0.046415888336127795,2,0.27771352272711386,0.010084624248319666
62,,0.046415888336127795,4,0.32681509608812426,0.013330110801058519
63,,0.046415888336127795,8,0.43591513511051794,0.02603842342327202
64,,0.046415888336127795,16,0.4710748634882333,0.02871786513162713
65,,0.046415888336127795,32,0.5402281938718703,0.01520106276727826
66,,0.046415888336127795,63,0.5508391156019901,0.014260668601719564
67,,0.046415888336127795,126,0.5540169979456524,0.007724119596028071
68,,0.046415888336127795,251,0.554823447042297,0.00908533750744273
69,,0.046415888336127795,500,0.5569947644706472,0.006826446388212312
70,balanced,0.046415888336127795,1,0.0414669277503257,0.016149821453642625
71,balanced,0.046415888336127795,2,0.4030533645660971,0.010906458071187074
72,balanced,0.046415888336127795,4,0.4385720586485105,0.023069044601607924
73,balanced,0.046415888336127795,8,0.4886628334927301,0.024361138774652805
74,balanced,0.046415888336127795,16,0.5179378414423155,0.020433695696179713
75,balanced,0.046415888336127795,32,0.5524182506981686,0.008940510989200397
76,balanced,0.046415888336127795,63,0.5574086090387922,0.011115419676938904
77,balanced,0.046415888336127795,126,0.5589036708172027,0.009296447099113592
78,balanced,0.046415888336127795,251,0.5614286788947129,0.008778642987062915
79,balanced,0.046415888336127795,500,0.5628957586977489,0.008878872536105031
80,,0.1668100537200059,1,0.0,0.0
81,,0.1668100537200059,2,0.27823874202880877,0.011893910198406894
82,,0.1668100537200059,4,0.3441430642048592,0.01958991600090387
83,,0.1668100537200059,8,0.4117320041761509,0.01832552486361302
84,,0.1668100537200059,16,0.46610057676883604,0.014520119059534872
85,,0.1668100537200059,32,0.5427081765719165,0.0204652678766998
86,,0.1668100537200059,63,0.552995620122829,0.013446064946336891
87,,0.1668100537200059,126,0.5549518013058296,0.00776788521078053
88,,0.1668100537200059,251,0.5557796680239141,0.007948752092425605
89,,0.1668100537200059,500,0.5573147587881038,0.005173023385575083
90,balanced,0.1668100537200059,1,0.0415013038955976,0.016199132702885494
91,balanced,0.1668100537200059,2,0.4030798488156533,0.010945207178682661
92,balanced,0.1668100537200059,4,0.43842141739815366,0.012724730985098947
93,balanced,0.1668100537200059,8,0.4860935333760139,0.009066205058823251
94,balanced,0.1668100537200059,16,0.5098487807808739,0.02307787061079761
95,balanced,0.1668100537200059,32,0.550368559291226,0.01152316677093707
96,balanced,0.1668100537200059,63,0.5579851934972754,0.009737234823441594
97,balanced,0.1668100537200059,126,0.5583270228204577,0.00956772444265114
98,balanced,0.1668100537200059,251,0.5595031095071087,0.008911733996098748
99,balanced,0.1668100537200059,500,0.5624215843243051,0.010018726465035073
100,,0.5994842503189409,1,0.0,0.0
101,,0.5994842503189409,2,0.27958894247755006,0.012266584033671004
102,,0.5994842503189409,4,0.33604055235367347,0.023975243996383726
103,,0.5994842503189409,8,0.4448394852998798,0.010286432167701748
104,,0.5994842503189409,16,0.5030237011632696,0.024076127409029986
105,,0.5994842503189409,32,0.5328432352456869,0.02324675866394675
106,,0.5994842503189409,63,0.5515041803369533,0.01206276396393364
107,,0.5994842503189409,126,0.5525373362732353,0.008372032352048052
108,,0.5994842503189409,251,0.5563571149920215,0.007208332021587716
109,,0.5994842503189409,500,0.5600483813486147,0.010423666593855088
110,balanced,0.5994842503189409,1,0.0415013038955976,0.016199132702885494
111,balanced,0.5994842503189409,2,0.4030798488156533,0.010945207178682661
112,balanced,0.5994842503189409,4,0.43776905696011503,0.015543620208743255
113,balanced,0.5994842503189409,8,0.4839367715938027,0.00915202818715442
114,balanced,0.5994842503189409,16,0.5119580489975574,0.0216764727260052
115,balanced,0.5994842503189409,32,0.5531540933748604,0.011984098976242273
116,balanced,0.5994842503189409,63,0.5598050846703535,0.011360084737677635
117,balanced,0.5994842503189409,126,0.5587214567313318,0.009570489571827026
118,balanced,0.5994842503189409,251,0.5612503896874876,0.00795842448109338
119,balanced,0.5994842503189409,500,0.5625523971788262,0.009480089826769926
120,,2.1544346900318843,1,0.0,0.0
121,,2.1544346900318843,2,0.279863283202511,0.012308741482692197
122,,2.1544346900318843,4,0.33583628708425356,0.030056438722615427
123,,2.1544346900318843,8,0.415513109715134,0.027479907154248872
124,,2.1544346900318843,16,0.4773121822663057,0.02031473112717986
125,,2.1544346900318843,32,0.5478040644313277,0.010895093684891857
126,,2.1544346900318843,63,0.5534152990514584,0.013035415011930496
127,,2.1544346900318843,126,0.5560609930468109,0.008028148845323786
128,,2.1544346900318843,251,0.5556640743581568,0.006867177524126758
129,,2.1544346900318843,500,0.5556102363470999,0.008730844204859908
130,balanced,2.1544346900318843,1,0.0415013038955976,0.016199132702885494
131,balanced,2.1544346900318843,2,0.4030798488156533,0.010945207178682661
132,balanced,2.1544346900318843,4,0.4353495729024857,0.013450585966467917
133,balanced,2.1544346900318843,8,0.4743964275636475,0.014519722490985508
134,balanced,2.1544346900318843,16,0.5097195095637613,0.020108230208918575
135,balanced,2.1544346900318843,32,0.5512345718555853,0.012535757685987534
136,balanced,2.1544346900318843,63,0.5568543224289849,0.010524333906121881
137,balanced,2.1544346900318843,126,0.5603861158941023,0.01028765008307219
138,balanced,2.1544346900318843,251,0.5599756509389388,0.01083840136325966
139,balanced,2.1544346900318843,500,0.5632317519918725,0.010530753374715738
140,,7.742636826811277,1,0.0,0.0
141,,7.742636826811277,2,0.2798250597283038,0.012230991534885589
142,,7.742636826811277,4,0.3302897769822567,0.027240777963077986
143,,7.742636826811277,8,0.4371091370732111,0.01479016057926465
144,,7.742636826811277,16,0.4818668130828712,0.03499397713737596
145,,7.742636826811277,32,0.5397673569933596,0.016068532912271012
146,,7.742636826811277,63,0.5520022850323528,0.013574369730153715
147,,7.742636826811277,126,0.5566733196664435,0.011123947223765258
148,,7.742636826811277,251,0.5565123236379984,0.00610737154808943
149,,7.742636826811277,500,0.5572314115388318,0.007656867566816661
150,balanced,7.742636826811277,1,0.0415013038955976,0.016199132702885494
151,balanced,7.742636826811277,2,0.4030798488156533,0.010945207178682661
152,balanced,7.742636826811277,4,0.4320728247037412,0.009852766541574179
153,balanced,7.742636826811277,8,0.4769335493303328,0.020641646753671267
154,balanced,7.742636826811277,16,0.5155896321487639,0.016282561606275708
155,balanced,7.742636826811277,32,0.5517268313613213,0.008052729941010382
156,balanced,7.742636826811277,63,0.5579393517757834,0.012986641075143511
157,balanced,7.742636826811277,126,0.5601445983805364,0.010594104113816975
158,balanced,7.742636826811277,251,0.5602930640389193,0.008291368344758689
159,balanced,7.742636826811277,500,0.5635647212142258,0.007707653759237453
160,,27.825594022071257,1,0.0,0.0
161,,27.825594022071257,2,0.2798250597283038,0.012230991534885589
162,,27.825594022071257,4,0.33224726871396415,0.03363748772814196
163,,27.825594022071257,8,0.39206751454233796,0.030177793549101793
164,,27.825594022071257,16,0.4812974299280051,0.03716643900454257
165,,27.825594022071257,32,0.540963236133976,0.010422709862021545
166,,27.825594022071257,63,0.5521457706125279,0.014939254244703206
167,,27.825594022071257,126,0.5554659281826728,0.0069012759019343095
168,,27.825594022071257,251,0.5549266479025146,0.009492461619565061
169,,27.825594022071257,500,0.5581470070545166,0.00904041431825352
170,balanced,27.825594022071257,1,0.0415013038955976,0.016199132702885494
171,balanced,27.825594022071257,2,0.4030798488156533,0.010945207178682661
172,balanced,27.825594022071257,4,0.4441376663655444,0.007605696803746019
173,balanced,27.825594022071257,8,0.4693002681553177,0.01894852479123373
174,balanced,27.825594022071257,16,0.5109550692873118,0.024358134438543646
175,balanced,27.825594022071257,32,0.551269317046841,0.010985097401860133
176,balanced,27.825594022071257,63,0.5564508774417873,0.011680180586425106
177,balanced,27.825594022071257,126,0.5591615382480228,0.013119954666266727
178,balanced,27.825594022071257,251,0.5597455592759321,0.010292409170159333
179,balanced,27.825594022071257,500,0.5631309455007798,0.008429808856448343
180,,100.0,1,0.0,0.0
181,,100.0,2,0.27992115150533853,0.012088197240349504
182,,100.0,4,0.34572014590885825,0.035806672433933234
183,,100.0,8,0.43128659439124856,0.04768989977458798
184,,100.0,16,0.47729346149103724,0.03241350328985118
185,,100.0,32,0.5452342411810316,0.010272617629238825
186,,100.0,63,0.55153089480653,0.010935012775235651
187,,100.0,126,0.5545360479775759,0.01240580921737524
188,,100.0,251,0.5551627528224543,0.006688125224778416
189,,100.0,500,0.5558880422429673,0.005757583474764292
190,balanced,100.0,1,0.0415013038955976,0.016199132702885494
191,balanced,100.0,2,0.4030798488156533,0.010945207178682661
192,balanced,100.0,4,0.4359187162827979,0.017395444666598394
193,balanced,100.0,8,0.4626351137709962,0.004389239161386387
194,balanced,100.0,16,0.5074240588273519,0.013539913551956887
195,balanced,100.0,32,0.5523005305126194,0.01123217856445052
196,balanced,100.0,63,0.5569366729869192,0.011814678346133272
197,balanced,100.0,126,0.5561069727800182,0.009365460228963462
198,balanced,100.0,251,0.5624125526984096,0.007533319431033515
199,balanced,100.0,500,0.5639959182287162,0.009418707070343991
